<svg width="16" height="16" viewBox="0 0 16 16" fill="none" xmlns="http://www.w3.org/2000/svg">
<path d="M7.2 9.6H5.6C5.6 5.624 8.824 2.4 12.8 2.4V4C9.704 4 7.2 6.504 7.2 9.6ZM12.8 7.2V5.6C10.592 5.6 8.8 7.392 8.8 9.6H10.4C10.4 8.272 11.472 7.2 12.8 7.2ZM4 1.6C4 0.712 3.288 0 2.4 0C1.512 0 0.8 0.712 0.8 1.6C0.8 2.488 1.512 3.2 2.4 3.2C3.288 3.2 4 2.488 4 1.6ZM7.56 2H5.96C5.768 3.136 4.792 4 3.6 4H1.2C0.536 4 0 4.536 0 5.2V7.2H4.8V5.392C6.288 4.92 7.4 3.608 7.56 2ZM13.6 12C14.488 12 15.2 11.288 15.2 10.4C15.2 9.512 14.488 8.8 13.6 8.8C12.712 8.8 12 9.512 12 10.4C12 11.288 12.712 12 13.6 12ZM14.8 12.8H12.4C11.208 12.8 10.232 11.936 10.04 10.8H8.44C8.6 12.408 9.712 13.72 11.2 14.192V16H16V14C16 13.336 15.464 12.8 14.8 12.8Z" fill="#221D35"/>
</svg>
