<svg width="16" height="16" viewBox="0 0 16 16" fill="none" xmlns="http://www.w3.org/2000/svg">
<path d="M0 12.6671V16H3.33287L13.1626 6.17025L9.82975 2.83738L0 12.6671ZM15.74 3.59283C16.0867 3.24622 16.0867 2.68629 15.74 2.33967L13.6603 0.259964C13.3137 -0.0866546 12.7538 -0.0866546 12.4072 0.259964L10.7807 1.8864L14.1136 5.21927L15.74 3.59283Z" fill="#211D35"/>
</svg>
